C:\Users\matha\OneDrive – NTNU\BIDATA semester 2\Programming 2\Mappe del 1\src\main\java\mappe\del1\hospital\healthpersonal\doctor\Doctor.java
C:\Users\matha\OneDrive – NTNU\BIDATA semester 2\Programming 2\Mappe del 1\src\main\java\mappe\del1\hospital\Diagnosable.java
C:\Users\matha\OneDrive – NTNU\BIDATA semester 2\Programming 2\Mappe del 1\src\main\java\mappe\del1\hospital\healthpersonal\doctor\GeneralPractitioner.java
C:\Users\matha\OneDrive – NTNU\BIDATA semester 2\Programming 2\Mappe del 1\src\main\java\mappe\del1\hospital\HospitalTestData.java
C:\Users\matha\OneDrive – NTNU\BIDATA semester 2\Programming 2\Mappe del 1\src\main\java\mappe\del1\hospital\Person.java
C:\Users\matha\OneDrive – NTNU\BIDATA semester 2\Programming 2\Mappe del 1\src\main\java\mappe\del1\hospital\Hospital.java
C:\Users\matha\OneDrive – NTNU\BIDATA semester 2\Programming 2\Mappe del 1\src\main\java\mappe\del1\hospital\Department.java
C:\Users\matha\OneDrive – NTNU\BIDATA semester 2\Programming 2\Mappe del 1\src\main\java\mappe\del1\hospital\healthpersonal\Nurse.java
C:\Users\matha\OneDrive – NTNU\BIDATA semester 2\Programming 2\Mappe del 1\src\main\java\mappe\del1\hospital\HospitalClient.java
C:\Users\matha\OneDrive – NTNU\BIDATA semester 2\Programming 2\Mappe del 1\src\main\java\mappe\del1\hospital\healthpersonal\doctor\Surgeon.java
C:\Users\matha\OneDrive – NTNU\BIDATA semester 2\Programming 2\Mappe del 1\src\main\java\mappe\del1\hospital\RemoveException.java
C:\Users\matha\OneDrive – NTNU\BIDATA semester 2\Programming 2\Mappe del 1\src\main\java\mappe\del1\hospital\Patient.java
C:\Users\matha\OneDrive – NTNU\BIDATA semester 2\Programming 2\Mappe del 1\src\main\java\mappe\del1\hospital\Employee.java
